1670401712
s:6125:"<?xml version="1.0" encoding="utf-8" ?><rss version="2.0" xml:base="https://www.prestashop.com/fr/blog/feed.xml" xmlns:dc="http://purl.org/dc/elements/1.1/" xmlns:atom="http://www.w3.org/2005/Atom" xmlns:og="http://ogp.me/ns#" xmlns:content="http://purl.org/rss/1.0/modules/content/" xmlns:foaf="http://xmlns.com/foaf/0.1/" xmlns:rdfs="http://www.w3.org/2000/01/rdf-schema#" xmlns:sioc="http://rdfs.org/sioc/ns#" xmlns:sioct="http://rdfs.org/sioc/types#" xmlns:skos="http://www.w3.org/2004/02/skos/core#" xmlns:xsd="http://www.w3.org/2001/XMLSchema#">
  <channel>
    <title>Blog Feed</title>
    <link>https://www.prestashop.com/fr/blog/feed.xml</link>
    <description></description>
    <language>fr</language>
     <atom:link href="https://www.prestashop.com/fr/blog/feed.xml" rel="self" type="application/rss+xml" />
      <item>
    <title>Comment limiter le taux de rebond sur votre site e-commerce ?</title>
    <link>https://www.prestashop.com/fr/blog/taux-rebond-ameliorer</link>
    <description>Le salut des entreprises e-commerce réside en partie dans l’acquisition d’un trafic suffisant sur leur boutique e</description>
     <pubDate>Wed, 30 Nov 2022 17:45:26 +0100</pubDate>
 <dc:creator>YATEO</dc:creator>
 <guid isPermaLink="false">https://www.prestashop.com/fr/blog/taux-rebond-ameliorer</guid>
  </item>
  <item>
    <title>E-commerce : top 5 des KPI à suivre</title>
    <link>https://www.prestashop.com/fr/blog/kpi-top-suivre</link>
    <description>De l’anglais Key Performance Indicator, un KPI est une donnée mesurable qui permet d&#039;analyser les performances financièr</description>
     <pubDate>Wed, 30 Nov 2022 17:29:28 +0100</pubDate>
 <dc:creator>Charlotte Bernard</dc:creator>
 <guid isPermaLink="false">https://www.prestashop.com/fr/blog/kpi-top-suivre</guid>
  </item>
  <item>
    <title>Export : le vrai levier de croissance</title>
    <link>https://www.prestashop.com/fr/blog/levier-croissance-export</link>
    <description>Le marché du e-commerce transfrontalier devrait atteindre 38 % des ventes en ligne d&#039;ici 2023.</description>
     <pubDate>Wed, 30 Nov 2022 16:50:25 +0100</pubDate>
 <dc:creator>L&#039;équipe PrestaShop</dc:creator>
 <guid isPermaLink="false">https://www.prestashop.com/fr/blog/levier-croissance-export</guid>
  </item>
  <item>
    <title>Marketing digital : le guide complet</title>
    <link>https://www.prestashop.com/fr/blog/marketing-digital</link>
    <description>Projet actuel de beaucoup d&#039;entreprises qui se digitalisent au travers du e-commerce, la mise en place d&#039;une stratégie de marketing digital est une étape obligatoire pour les marques qui so</description>
     <pubDate>Thu, 24 Nov 2022 16:41:27 +0100</pubDate>
 <dc:creator>mFourcadier</dc:creator>
 <guid isPermaLink="false">https://www.prestashop.com/fr/blog/marketing-digital</guid>
  </item>
  <item>
    <title>Stratégie omnicanale : définition, mise en place et exemples</title>
    <link>https://www.prestashop.com/fr/blog/strategie-omnicanal</link>
    <description>La pandémie a été un véritable accélérateur de changement poussant les entreprises de détail qui ne l’avaient pas encore fait à engager leur transformation digitale les poussant à </description>
     <pubDate>Wed, 23 Nov 2022 16:49:28 +0100</pubDate>
 <dc:creator>mFourcadier</dc:creator>
 <guid isPermaLink="false">https://www.prestashop.com/fr/blog/strategie-omnicanal</guid>
  </item>
  <item>
    <title>10 conseils pour élaborer votre stratégie de marketing mix</title>
    <link>https://www.prestashop.com/fr/blog/marketing-mix-conseils</link>
    <description>Bâtir une stratégie marketing pour la vente d’un produit en ligne est une chose complexe.</description>
     <pubDate>Thu, 17 Nov 2022 18:24:06 +0100</pubDate>
 <dc:creator>YATEO</dc:creator>
 <guid isPermaLink="false">https://www.prestashop.com/fr/blog/marketing-mix-conseils</guid>
  </item>
  <item>
    <title>Comment remercier vos clients pour leur achat ?</title>
    <link>https://www.prestashop.com/fr/blog/remercier-clients-commerce</link>
    <description>Dans le commerce en ligne comme dans le commerce physique, il serait mal venu de stopper vos efforts une fois l’a</description>
     <pubDate>Thu, 17 Nov 2022 18:21:26 +0100</pubDate>
 <dc:creator>YATEO</dc:creator>
 <guid isPermaLink="false">https://www.prestashop.com/fr/blog/remercier-clients-commerce</guid>
  </item>
  <item>
    <title>PowerGym muscle son CA avec le paiement fractionné</title>
    <link>https://www.prestashop.com/fr/blog/powergym-succes-paylater</link>
    <description>Guillaume Jacquelin et Alexandre Rusch, passionnés de sport mais peu friands des salles d’entrainement, décident en 2020 de créer PowerGym, une boutique dédiée au homegym.  Le site e-commer</description>
     <pubDate>Thu, 17 Nov 2022 17:21:34 +0100</pubDate>
 <dc:creator>PrestaShop Team</dc:creator>
 <guid isPermaLink="false">https://www.prestashop.com/fr/blog/powergym-succes-paylater</guid>
  </item>
  <item>
    <title>TTFB : Comment optimiser le temps de réponse serveur de son site e-commerce ?</title>
    <link>https://www.prestashop.com/fr/blog/ttfb-reduire-temps-reponse-serveur</link>
    <description>Qu&#039;est-ce que le Time To First Byte ? Comment l’optimiser ? Et combien de temps faut-il à un site pour s’afficher correctement ?</description>
     <pubDate>Wed, 16 Nov 2022 16:12:29 +0100</pubDate>
 <dc:creator>mFourcadier</dc:creator>
 <guid isPermaLink="false">https://www.prestashop.com/fr/blog/ttfb-reduire-temps-reponse-serveur</guid>
  </item>
  <item>
    <title>Livraison éco-responsable : comment réduire votre impact ?</title>
    <link>https://www.prestashop.com/fr/blog/livraison-dhl-responsable</link>
    <description>La protection de l’environnement est un enjeu clé au cœur des préoccupations des consommateurs mais aussi des entreprises.</description>
     <pubDate>Tue, 15 Nov 2022 11:08:03 +0100</pubDate>
 <dc:creator>Delphine Robert</dc:creator>
 <guid isPermaLink="false">https://www.prestashop.com/fr/blog/livraison-dhl-responsable</guid>
  </item>
  </channel>
</rss>
";